fmindex_sv/waveform.vcd
$version Generated by VerilatedVcd $end
$timescale 1ps $end
 $scope module TOP $end
  $scope module tb_FM_Index $end
   $var wire 1 2 clk $end
   $var wire 1 3 reset $end
   $var wire 1 4 start $end
   $var wire 24 5 pattern [23:0] $end
   $var wire 32 6 pat_len_in [31:0] $end
   $var wire 1 ( done $end
   $var wire 1 ) fail $end
   $var wire 4 * l_out [3:0] $end
   $var wire 4 + r_out [3:0] $end
   $scope module dut $end
    $var wire 1 2 clk $end
    $var wire 1 3 reset $end
    $var wire 1 4 start $end
    $var wire 24 5 pattern [23:0] $end
    $var wire 32 6 pat_len_in [31:0] $end
    $var wire 1 ( done $end
    $var wire 1 ) fail $end
    $var wire 4 * l_out [3:0] $end
    $var wire 4 + r_out [3:0] $end
    $var wire 4 , state [3:0] $end
    $var wire 4 * l [3:0] $end
    $var wire 4 + r [3:0] $end
    $var wire 4 - rank_l [3:0] $end
    $var wire 4 . rank_r [3:0] $end
    $var wire 3 / c [2:0] $end
    $var wire 32 0 pat_idx [31:0] $end
    $var wire 32 1 loop_count [31:0] $end
    $var wire 4 # C_arr[0] [3:0] $end
    $var wire 4 $ C_arr[1] [3:0] $end
    $var wire 4 % C_arr[2] [3:0] $end
    $var wire 4 & C_arr[3] [3:0] $end
    $var wire 4 ' C_arr[4] [3:0] $end
   $upscope $end
  $upscope $end
 $upscope $end
$enddefinitions $end


#0
b0000 #
b0001 $
b0100 %
b0101 &
b0110 '
0(
0)
b0000 *
b0000 +
b0000 ,
b0000 -
b0000 .
b000 /
b00000000000000000000000000000000 0
b00000000000000000000000000000000 1
02
13
04
b100001000000000000000000 5
b00000000000000000000000000000010 6
#5
12
#10
02
03
14
#15
b0001 ,
b00000000000000000000000000000010 1
12
#20
02
04
#25
b1000 +
b0010 ,
b00000000000000000000000000000111 0
12
#30
02
#35
b0011 ,
b100 /
b00000000000000000000000000000001 1
12
#40
02
#45
b0100 ,
12
#50
02
#55
b0101 ,
b0010 .
12
#60
02
#65
b0110 *
b0110 ,
12
#70
02
#75
b0010 ,
b00000000000000000000000000000110 0
12
#80
02
#85
b0011 ,
b001 /
b00000000000000000000000000000000 1
12
#90
02
#95
b0100 ,
b0010 -
12
#100
02
#105
b0101 ,
b0011 .
12
#110
02
#115
b0011 *
b0100 +
b0110 ,
12
#120
02
#125
b0111 ,
12
#130
02
#135
1(
b0000 ,
12
#140
02
#145
0(
b00000000000000000000000000000010 1
12
